Soccer Predictions Using Bayesian Mixed Effects Models
…
We can then map our functions to the defined URLs.

library(rvest)
library(purrr)
library(dplyr)

league_urls <- map_df(.x = leagues, .f = scrape_league)
major_cup_urls <- map_df(.x = major_cups, .f = scrape_major_cup)
domestic_cup_urls <- map_df(.x = domestic_cups, .f = scrape_dom_cup)

league_urls
#> # A tibble: 304 × 5
#>                 club goals_for goals_against points
#>                <chr>     <chr>         <chr>  <chr>
#> 1        Club Brugge        53            20     58
#> 2         Anderlecht        60            27     55
#> 3      Zulte-Waregem        44            35     50
#> 4 Royal Charleroi SC        32            25     47
#> 5        KV Oostende        46            35     45
#> 6        KV Mechelen        36            29     44
#> # ... with 298 more rows, and 1 more variables: club_url <chr>
major_cup_urls
#> # A tibble: 97 × 2
#>                  club
#>                 <chr>
#> 1             Arsenal
#> 2 Paris Saint-Germain
#> 3  Ludogorets Razgrad
#> 4            FC Basel
#> 5              Napoli
#> 6             Benfica
#> # ... with 91 more rows, and 1 more variables: club_url <chr>
domestic_cup_urls
#> # A tibble: 273 × 2
#>              club                                             club_url
#>             <chr>                                                <chr>
#> 1       Barcelona         http://www.espnfc.us/club/barcelona/83/index
#> 2          Alavés            http://www.espnfc.us/club/alaves/96/index
#> 3 Atletico Madrid http://www.espnfc.us/club/atletico-madrid/1068/index
#> 4           Eibar           http://www.espnfc.us/club/eibar/3752/index
#> 5      Celta Vigo        http://www.espnfc.us/club/celta-vigo/85/index
#> 6     AD Alcorcon    http://www.espnfc.us/club/ad-alcorcon/11121/index
#> # ... with 267 more rows
…
full_urls <- league_urls %>%
  select(-club_url) %>%
  full_join(url_lookup, by = "club") %>%
  filter(!is.na(club_url))

full_urls
#> # A tibble: 418 × 5
#>                 club goals_for goals_against points
#>                <chr>     <chr>         <chr>  <chr>
#> 1        Club Brugge        53            20     58
#> 2         Anderlecht        60            27     55
#> 3      Zulte-Waregem        44            35     50
#> 4 Royal Charleroi SC        32            25     47
#> 5        KV Oostende        46            35     45
#> 6        KV Mechelen        36            29     44
#> # ... with 412 more rows, and 1 more variables: club_url <chr>
…
